…
### Removing the NAs in the start_station_name and end_station_name.

We know that all classic_bikes must start and end at a docking station,
we will remove all the bike trips that have NAs for either start or end
station names.

``` r
trip_clean_na <- trip_clean %>% filter(!(rideable_type == "classic_bike" & (is.na(start_station_name) | is.na(end_station_name))))
trip_clean_na 
```

    ## # A tibble: 5,748,551 × 13
    ##    ride_id          rideable_type started_at          ended_at           
    ##    <chr>            <chr>         <dttm>              <dttm>             
    ##  1 C809ED75D6160B2A electric_bike 2021-05-30 11:58:15 2021-05-30 12:10:39
    ##  2 DD59FDCE0ACACAF3 electric_bike 2021-05-30 11:29:14 2021-05-30 12:14:09
    ##  3 0AB83CB88C43EFC2 electric_bike 2021-05-30 14:24:01 2021-05-30 14:25:13
    ##  4 7881AC6D39110C60 electric_bike 2021-05-30 14:25:51 2021-05-30 14:41:04
    ##  5 853FA701B4582BAF electric_bike 2021-05-30 18:15:39 2021-05-30 18:22:32
    ##  6 F5E63DFD96B2A737 electric_bike 2021-05-30 11:33:41 2021-05-30 11:57:17
    ##  7 C884951E36656727 electric_bike 2021-05-30 10:51:37 2021-05-30 11:06:20
    ##  8 48B60B250FE75AF9 electric_bike 2021-05-05 13:57:03 2021-05-05 14:14:58
    ##  9 E3D0CC2FE1359880 electric_bike 2021-05-05 11:31:26 2021-05-05 11:34:03
    ## 10 4382735758ABF2CE electric_bike 2021-05-04 19:51:05 2021-05-04 20:17:26
    ## # … with 5,748,541 more rows, and 9 more variables: start_station_name <chr>,
    ## #   start_station_id <chr>, end_station_name <chr>, end_station_id <chr>,
    ## #   start_lat <dbl>, start_lng <dbl>, end_lat <dbl>, end_lng <dbl>,
    ## #   member_casual <chr>
…
### Top routes

``` r
clean_df %>% 
  group_by(route, member_casual) %>% 
  summarise(total_rides = n()) %>% 
  arrange(desc(total_rides))
```

    ## `summarise()` has grouped output by 'route'. You can override using the
    ## `.groups` argument.

    ## # A tibble: 250,826 × 3
    ## # Groups:   route [156,090]
    ##    route                                               member_casual total_rides
    ##    <chr>                                               <chr>               <int>
    ##  1 <NA>                                                member             602495
    ##  2 <NA>                                                casual             499961
    ##  3 Streeter Dr & Grand Ave--Streeter Dr & Grand Ave    casual              10898
    ##  4 Michigan Ave & Oak St--Michigan Ave & Oak St        casual               5199
    ##  5 Millennium Park--Millennium Park                    casual               5199
    ##  6 Ellis Ave & 60th St--Ellis Ave & 55th St            member               4873
    ##  7 Ellis Ave & 60th St--University Ave & 57th St       member               4647
    ##  8 University Ave & 57th St--Ellis Ave & 60th St       member               4486
    ##  9 Ellis Ave & 55th St--Ellis Ave & 60th St            member               4297
    ## 10 DuSable Lake Shore Dr & Monroe St--DuSable Lake Sh… casual               3695
    ## # … with 250,816 more rows
…
### Ride count by month, by customer type

We can check to see how the different customers use the bikes on a
monthly basis

``` r
clean_df %>% 
  count(month, member_casual)
```

    ## # A tibble: 24 × 3
    ##    month member_casual      n
    ##    <ord> <chr>          <int>
    ##  1 Jan   casual         18036
    ##  2 Jan   member         83461
    ##  3 Feb   casual         20897
    ##  4 Feb   member         91904
    ##  5 Mar   casual         88045
    ##  6 Mar   member        190526
    ##  7 Apr   casual        123747
    ##  8 Apr   member        239773
    ##  9 May   casual        252625
    ## 10 May   member        269579
    ## # … with 14 more rows
…
